...........
----------------------------------------------------------------------
Ran 11 tests in 0.019s

OK
Name               Stmts   Miss Branch BrPart  Cover   Missing
--------------------------------------------------------------
Diplomacy.py          99      0     64      0   100%
TestDiplomacy.py      59      0      0      0   100%
--------------------------------------------------------------
TOTAL                158      0     64      0   100%
